Projeto 2 Final/Projeto2_Microondas/Projeto2_Microondas/microondas_nivel1/magnetron_nivel2/Teste/controle_magnetron_tb.vcd
$date
	Wed Jul 27 21:11:24 2022
$end
$version
	Icarus Verilog
$end
$timescale
	1ps
$end
$scope module controle_magnetron_tb $end
$var wire 1 ! mag_on_tb $end
$var reg 1 " clearn_tb $end
$var reg 1 # door_closed_tb $end
$var reg 1 $ startn_tb $end
$var reg 1 % stopn_tb $end
$var reg 1 & timer_done_tb $end
$scope module DUT $end
$var wire 1 " clearn $end
$var wire 1 # door_closed $end
$var wire 1 $ startn $end
$var wire 1 % stopn $end
$var wire 1 & timer_done $end
$var wire 1 ! mag_on $end
$var wire 1 ' S $end
$var wire 1 ( R $end
$scope module latch $end
$var wire 1 ' S $end
$var wire 1 ( R $end
$var reg 1 ! Q $end
$upscope $end
$scope module logica $end
$var wire 1 " clearn $end
$var wire 1 # door_closed $end
$var wire 1 $ startn $end
$var wire 1 % stopn $end
$var wire 1 & timer_done $end
$var reg 1 ( R $end
$var reg 1 ' S $end
$upscope $end
$upscope $end
$upscope $end
$enddefinitions $end
#0
$dumpvars
1(
0'
x&
0%
0$
0#
0"
0!
$end
#1000000000000
1%
1$
#2000000000000
1#
#3000000000000
0#
1&
#4000000000000
1#
#5000000000000
0#
0&
1"
#6000000000000
1#
#7000000000000
0#
1&
#8000000000000
1#
#9000000000000
0#
0&
0"
#10000000000000
1#
#11000000000000
0#
1&
#12000000000000
1#
#13000000000000
0#
0&
1"
#14000000000000
1#
#15000000000000
0%
#17000000000000
0#
1&
1%
#20000000000000
0&
#22000000000000
0%
#25000000000000
1%
0$
#26000000000000
1!
0(
1'
1#
#27000000000000
0!
1(
0'
0#
1&
#28000000000000
1#
#29000000000000
0#
0&
#30000000000000
1#
1$
#31000000000000
0#
1&
#32000000000000
1#
#33000000000000
0&
#38000000000000
1!
0(
1'
0$
#40500000000000
1$
#42000000000000
0!
1(
0'
0%
#47000000000000
1&
1%
#52000000000000
0%
