joao-victor-melo/microwave.vcd
$date
	Thu May 12 23:01:43 2022
$end
$version
	Icarus Verilog
$end
$timescale
	1ms
$end
$scope module microwave_TB $end
$scope module microwave_TB $end
$var wire 7 ! blank_digit [6:0] $end
$var wire 1 " clearn $end
$var wire 1 # clk_100Hz $end
$var wire 1 $ door_closed $end
$var wire 10 % keypad [0:9] $end
$var wire 1 & mag_on $end
$var wire 1 ' startn $end
$var wire 1 ( stopn $end
$var wire 1 ) timer_done_aux $end
$var wire 7 * sec_tens_segs [6:0] $end
$var wire 4 + sec_tens_aux [3:0] $end
$var wire 7 , sec_ones_segs [6:0] $end
$var wire 4 - sec_ones_aux [3:0] $end
$var wire 1 . pgt_1Hz_aux $end
$var wire 7 / min_segs [6:0] $end
$var wire 4 0 min_aux [3:0] $end
$var wire 1 1 mag_on_aux $end
$var wire 1 2 loadn_aux $end
$var wire 4 3 bcd_aux [3:0] $end
$scope module N0 $end
$var wire 7 4 sec_tens_segs [6:0] $end
$var wire 4 5 sec_tens [3:0] $end
$var wire 7 6 sec_ones_segs [6:0] $end
$var wire 4 7 sec_ones [3:0] $end
$var wire 7 8 min_segs [6:0] $end
$var wire 4 9 min [3:0] $end
$scope module N0 $end
$var wire 4 : x [3:0] $end
$var reg 7 ; x_segs [6:0] $end
$upscope $end
$scope module N1 $end
$var wire 4 < x [3:0] $end
$var reg 7 = x_segs [6:0] $end
$upscope $end
$scope module N3 $end
$var wire 4 > x [3:0] $end
$var reg 7 ? x_segs [6:0] $end
$upscope $end
$upscope $end
$scope module N1 $end
$var wire 1 " clrn $end
$var wire 1 ) zero $end
$var wire 1 @ zero_segundinhos $end
$var wire 1 A zero_segundao $end
$var wire 1 B zero_minutos $end
$var wire 4 C sec_tens [3:0] $end
$var wire 4 D sec_ones [3:0] $end
$var wire 4 E mins [3:0] $end
$var wire 1 2 loadn $end
$var wire 1 1 enable $end
$var wire 1 F en_segundao $end
$var wire 1 G en_minutos $end
$var wire 4 H data [3:0] $end
$var wire 1 . clock $end
$var wire 1 I aux $end
$scope module minutos $end
$var wire 1 " clrn $end
$var wire 4 J ones [3:0] $end
$var wire 1 B zero $end
$var wire 1 I tc $end
$var wire 1 2 loadn $end
$var wire 1 G enable $end
$var wire 4 K data [3:0] $end
$var wire 1 . clock $end
$var reg 4 L atual [3:0] $end
$upscope $end
$scope module segundao $end
$var wire 1 " clrn $end
$var wire 4 M tens [3:0] $end
$var wire 1 A zero $end
$var wire 1 G tc $end
$var wire 1 2 loadn $end
$var wire 1 F en $end
$var wire 4 N data [3:0] $end
$var wire 1 . clk $end
$var reg 4 O atual [3:0] $end
$upscope $end
$scope module segundinhos $end
$var wire 1 " clrn $end
$var wire 4 P ones [3:0] $end
$var wire 1 @ zero $end
$var wire 1 F tc $end
$var wire 1 2 loadn $end
$var wire 1 1 enable $end
$var wire 4 Q data [3:0] $end
$var wire 1 . clock $end
$var reg 4 R atual [3:0] $end
$upscope $end
$upscope $end
$scope module N2 $end
$var wire 1 # clk_100Hz $end
$var wire 10 S keypad [0:9] $end
$var wire 1 . pgt_1Hz $end
$var wire 1 2 loadn $end
$var wire 1 1 enablen $end
$var wire 1 T debnc_out $end
$var wire 1 U clk_1Hz $end
$var wire 4 V bcd [3:0] $end
$scope module dbc $end
$var wire 1 # clk $end
$var wire 1 2 clear $end
$var reg 1 T out $end
$var reg 4 W timer [3:0] $end
$upscope $end
$scope module dvdr $end
$var wire 1 # clk_in $end
$var reg 1 U clk_out $end
$var reg 8 X timer [7:0] $end
$upscope $end
$scope module mux $end
$var wire 1 T i0 $end
$var wire 1 U i1 $end
$var wire 1 1 sel $end
$var reg 1 . out $end
$upscope $end
$scope module tmCtrl $end
$var wire 10 Y keypad [0:9] $end
$var wire 1 1 enablen $end
$var reg 4 Z bcd [3:0] $end
$var reg 1 2 loadn $end
$upscope $end
$upscope $end
$scope module N3 $end
$var wire 1 " clearn $end
$var wire 1 $ door_closed $end
$var wire 1 ' startn $end
$var wire 1 ( stopn $end
$var wire 1 ) timer_done $end
$var wire 1 [ set $end
$var wire 1 \ reset $end
$var wire 1 1 Q $end
$scope module mg_ctrl $end
$var wire 1 " clearn $end
$var wire 1 $ door_closed $end
$var wire 1 ' startn $end
$var wire 1 ( stopn $end
$var wire 1 ) timer_done $end
$var reg 1 \ reset $end
$var reg 1 [ set $end
$upscope $end
$scope module sr $end
$var wire 1 \ reset $end
$var wire 1 [ set $end
$var reg 1 1 Q $end
$upscope $end
$upscope $end
$upscope $end
$upscope $end
$enddefinitions $end
#0
$dumpvars
x\
0[
b1111 Z
b0 Y
b0 X
b0 W
b1111 V
xU
0T
b0 S
bx R
b1111 Q
bx P
bx O
bx N
bx M
bx L
bx K
bx J
0I
b1111 H
0G
0F
bx E
bx D
bx C
xB
xA
x@
b1 ?
bx >
b1 =
bx <
b1 ;
bx :
bx 9
b1 8
bx 7
b1 6
bx 5
b1 4
b1111 3
12
01
bx 0
b1 /
0.
bx -
b1 ,
bx +
b1 *
x)
1(
1'
0&
b0 %
1$
0#
1"
b1111111 !
$end
#5
0U
b1 X
1#
#10
0#
#15
b10 X
1#
#20
0#
#25
b11 X
1#
#30
0#
#35
b100 X
1#
#40
0#
#45
b101 X
1#
#50
02
b1 3
b1 H
b1 Q
b1 V
b1 Z
0#
b10 %
b10 S
b10 Y
#55
b1 W
b110 X
1#
#60
0#
#65
b111 X
b10 W
1#
#70
0#
#75
b11 W
b1000 X
1#
#80
0#
#85
b1001 X
b100 W
1#
#90
0#
#95
0\
0)
0@
b1001111 ,
b1001111 6
b1001111 ;
b1 -
b1 7
b1 :
b1 D
b1 N
b1 P
b1 R
1.
b101 W
1T
b1010 X
1#
#100
0.
b0 W
0T
12
b1111 3
b1111 H
b1111 Q
b1111 V
b1111 Z
0#
b0 %
b0 S
b0 Y
#105
b1011 X
1#
#110
0#
#115
b1100 X
1#
#120
0#
#125
b1101 X
1#
#130
0#
#135
b1110 X
1#
#140
0#
#145
b1111 X
1#
#150
02
b0 3
b0 H
b0 Q
b0 V
b0 Z
0#
b1 %
b1 S
b1 Y
#155
b1 W
b10000 X
1#
#160
0#
#165
b10001 X
b10 W
1#
#170
0#
#175
b11 W
b10010 X
1#
#180
0#
#185
b10011 X
b100 W
1#
#190
0#
#195
0A
1@
b1001111 *
b1001111 4
b1001111 =
b1 ,
b1 6
b1 ;
b1 +
b1 5
b1 <
b1 C
b1 K
b1 M
b1 O
b0 -
b0 7
b0 :
b0 D
b0 N
b0 P
b0 R
1.
b101 W
1T
b10100 X
1#
#200
0.
b0 W
0T
12
b1111 3
b1111 H
b1111 Q
b1111 V
b1111 Z
0#
b0 %
b0 S
b0 Y
#205
b10101 X
1#
#210
0#
#215
b10110 X
1#
#220
0#
#225
b10111 X
1#
#230
0#
#235
b11000 X
1#
#240
0#
#245
b11001 X
1#
#250
02
b1000 3
b1000 H
b1000 Q
b1000 V
b1000 Z
0#
b100000000 %
b100000000 S
b100000000 Y
#255
b1 W
b11010 X
1#
#260
0#
#265
b11011 X
b10 W
1#
#270
0#
#275
b11 W
b11100 X
1#
#280
0#
#285
b11101 X
b100 W
1#
#290
0#
#295
0@
1A
0B
b0 ,
b0 6
b0 ;
b1 *
b1 4
b1 =
b1001111 /
b1001111 8
b1001111 ?
b1000 -
b1000 7
b1000 :
b1000 D
b1000 N
b1000 P
b1000 R
b0 +
b0 5
b0 <
b0 C
b0 K
b0 M
b0 O
b1 0
b1 9
b1 >
b1 E
b1 J
b1 L
1.
b101 W
1T
b11110 X
1#
#300
0.
b0 W
0T
12
b1111 3
b1111 H
b1111 Q
b1111 V
b1111 Z
0#
b0 %
b0 S
b0 Y
#305
b11111 X
1#
#310
0#
#315
b100000 X
1#
#320
0#
#325
b100001 X
1#
#330
0#
#335
b100010 X
1#
#340
0#
#345
b100011 X
1#
#350
0#
#355
b100100 X
1#
#360
0#
#365
b100101 X
1#
#370
0#
#375
b100110 X
1#
#380
0#
#385
b100111 X
1#
#390
0#
#395
b101000 X
1#
#400
0#
#405
b101001 X
1#
#410
0#
#415
b101010 X
1#
#420
0#
#425
b101011 X
1#
#430
0#
#435
b101100 X
1#
#440
0#
#445
b101101 X
1#
#450
0#
#455
b101110 X
1#
#460
0#
#465
b101111 X
1#
#470
0#
#475
b110000 X
1#
#480
0#
#485
b110001 X
1#
#490
0#
#495
b110010 X
1#
#500
1&
11
1[
0#
0'
#505
b1111 ,
b1111 6
b1111 ;
b111 -
b111 7
b111 :
b111 D
b111 N
b111 P
b111 R
1.
1U
b110011 X
1#
#510
0#
#515
b110100 X
1#
#520
0#
#525
b110101 X
1#
#530
0#
#535
b110110 X
1#
#540
0#
#545
b110111 X
1#
#550
0[
0#
1'
#555
b111000 X
1#
#560
0#
#565
b111001 X
1#
#570
0#
#575
b111010 X
1#
#580
0#
#585
b111011 X
1#
#590
0#
#595
b111100 X
1#
#600
0#
#605
b111101 X
1#
#610
0#
#615
b111110 X
1#
#620
0#
#625
b111111 X
1#
#630
0#
#635
b1000000 X
1#
#640
0#
#645
b1000001 X
1#
#650
0#
#655
b1000010 X
1#
#660
0#
#665
b1000011 X
1#
#670
0#
#675
b1000100 X
1#
#680
0#
#685
b1000101 X
1#
#690
0#
#695
b1000110 X
1#
#700
0#
#705
b1000111 X
1#
#710
0#
#715
b1001000 X
1#
#720
0#
#725
b1001001 X
1#
#730
0#
#735
b1001010 X
1#
#740
0#
#745
b1001011 X
1#
#750
0#
#755
b1001100 X
1#
#760
0#
#765
b1001101 X
1#
#770
0#
#775
b1001110 X
1#
#780
0#
#785
b1001111 X
1#
#790
0#
#795
b1010000 X
1#
#800
0#
#805
b1010001 X
1#
#810
0#
#815
b1010010 X
1#
#820
0#
#825
b1010011 X
1#
#830
0#
#835
b1010100 X
1#
#840
0#
#845
b1010101 X
1#
#850
0#
#855
b1010110 X
1#
#860
0#
#865
b1010111 X
1#
#870
0#
#875
b1011000 X
1#
#880
0#
#885
b1011001 X
1#
#890
0#
#895
b1011010 X
1#
#900
0#
#905
b1011011 X
1#
#910
0#
#915
b1011100 X
1#
#920
0#
#925
b1011101 X
1#
#930
0#
#935
b1011110 X
1#
#940
0#
#945
b1011111 X
1#
#950
0#
#955
b1100000 X
1#
#960
0#
#965
b1100001 X
1#
#970
0#
#975
b1100010 X
1#
#980
0#
#985
b1100011 X
1#
#990
0#
#995
b0 X
1#
#1000
0#
#1005
0.
0U
b1 X
1#
#1010
0#
#1015
b10 X
1#
#1020
0#
#1025
b11 X
1#
#1030
0#
#1035
b100 X
1#
#1040
0#
#1045
b101 X
1#
#1050
0#
#1055
b110 X
1#
#1060
0#
#1065
b111 X
1#
#1070
0#
#1075
b1000 X
1#
#1080
0#
#1085
b1001 X
1#
#1090
0#
#1095
b1010 X
1#
#1100
0#
#1105
b1011 X
1#
#1110
0#
#1115
b1100 X
1#
#1120
0#
#1125
b1101 X
1#
#1130
0#
#1135
b1110 X
1#
#1140
0#
#1145
b1111 X
1#
#1150
0#
#1155
b10000 X
1#
#1160
0#
#1165
b10001 X
1#
#1170
0#
#1175
b10010 X
1#
#1180
0#
#1185
b10011 X
1#
#1190
0#
#1195
b10100 X
1#
#1200
0#
#1205
b10101 X
1#
#1210
0#
#1215
b10110 X
1#
#1220
0#
#1225
b10111 X
1#
#1230
0#
#1235
b11000 X
1#
#1240
0#
#1245
b11001 X
1#
#1250
0#
#1255
b11010 X
1#
#1260
0#
#1265
b11011 X
1#
#1270
0#
#1275
b11100 X
1#
#1280
0#
#1285
b11101 X
1#
#1290
0#
#1295
b11110 X
1#
#1300
0#
#1305
b11111 X
1#
#1310
0#
#1315
b100000 X
1#
#1320
0#
#1325
b100001 X
1#
#1330
0#
#1335
b100010 X
1#
#1340
0#
#1345
b100011 X
1#
#1350
0#
#1355
b100100 X
1#
#1360
0#
#1365
b100101 X
1#
#1370
0#
#1375
b100110 X
1#
#1380
0#
#1385
b100111 X
1#
#1390
0#
#1395
b101000 X
1#
#1400
0#
#1405
b101001 X
1#
#1410
0#
#1415
b101010 X
1#
#1420
0#
#1425
b101011 X
1#
#1430
0#
#1435
b101100 X
1#
#1440
0#
#1445
b101101 X
1#
#1450
0#
#1455
b101110 X
1#
#1460
0#
#1465
b101111 X
1#
#1470
0#
#1475
b110000 X
1#
#1480
0#
#1485
b110001 X
1#
#1490
0#
#1495
b110010 X
1#
#1500
0#
#1505
b100000 ,
b100000 6
b100000 ;
b110 -
b110 7
b110 :
b110 D
b110 N
b110 P
b110 R
1.
1U
b110011 X
1#
#1510
0#
#1515
b110100 X
1#
#1520
0#
#1525
b110101 X
1#
#1530
0#
#1535
b110110 X
1#
#1540
0#
#1545
b110111 X
1#
#1550
0#
#1555
b111000 X
1#
#1560
0#
#1565
b111001 X
1#
#1570
0#
#1575
b111010 X
1#
#1580
0#
#1585
b111011 X
1#
#1590
0#
#1595
b111100 X
1#
#1600
0#
#1605
b111101 X
1#
#1610
0#
#1615
b111110 X
1#
#1620
0#
#1625
b111111 X
1#
#1630
0#
#1635
b1000000 X
1#
#1640
0#
#1645
b1000001 X
1#
#1650
0#
#1655
b1000010 X
1#
#1660
0#
#1665
b1000011 X
1#
#1670
0#
#1675
b1000100 X
1#
#1680
0#
#1685
b1000101 X
1#
#1690
0#
#1695
b1000110 X
1#
#1700
0#
#1705
b1000111 X
1#
#1710
0#
#1715
b1001000 X
1#
#1720
0#
#1725
b1001001 X
1#
#1730
0#
#1735
b1001010 X
1#
#1740
0#
#1745
b1001011 X
1#
#1750
0#
#1755
b1001100 X
1#
#1760
0#
#1765
b1001101 X
1#
#1770
0#
#1775
b1001110 X
1#
#1780
0#
#1785
b1001111 X
1#
#1790
0#
#1795
b1010000 X
1#
#1800
0#
#1805
b1010001 X
1#
#1810
0#
#1815
b1010010 X
1#
#1820
0#
#1825
b1010011 X
1#
#1830
0#
#1835
b1010100 X
1#
#1840
0#
#1845
b1010101 X
1#
#1850
0#
#1855
b1010110 X
1#
#1860
0#
#1865
b1010111 X
1#
#1870
0#
#1875
b1011000 X
1#
#1880
0#
#1885
b1011001 X
1#
#1890
0#
#1895
b1011010 X
1#
#1900
0#
#1905
b1011011 X
1#
#1910
0#
#1915
b1011100 X
1#
#1920
0#
#1925
b1011101 X
1#
#1930
0#
#1935
b1011110 X
1#
#1940
0#
#1945
b1011111 X
1#
#1950
0#
#1955
b1100000 X
1#
#1960
0#
#1965
b1100001 X
1#
#1970
0#
#1975
b1100010 X
1#
#1980
0#
#1985
b1100011 X
1#
#1990
0#
#1995
b0 X
1#
#2000
0#
#2005
0.
0U
b1 X
1#
#2010
0#
#2015
b10 X
1#
#2020
0#
#2025
b11 X
1#
#2030
0#
#2035
b100 X
1#
#2040
0#
#2045
b101 X
1#
#2050
0#
#2055
b110 X
1#
#2060
0#
#2065
b111 X
1#
#2070
0#
#2075
b1000 X
1#
#2080
0#
#2085
b1001 X
1#
#2090
0#
#2095
b1010 X
1#
#2100
0#
#2105
b1011 X
1#
#2110
0#
#2115
b1100 X
1#
#2120
0#
#2125
b1101 X
1#
#2130
0#
#2135
b1110 X
1#
#2140
0#
#2145
b1111 X
1#
#2150
0#
#2155
b10000 X
1#
#2160
0#
#2165
b10001 X
1#
#2170
0#
#2175
b10010 X
1#
#2180
0#
#2185
b10011 X
1#
#2190
0#
#2195
b10100 X
1#
#2200
0#
#2205
b10101 X
1#
#2210
0#
#2215
b10110 X
1#
#2220
0#
#2225
b10111 X
1#
#2230
0#
#2235
b11000 X
1#
#2240
0#
#2245
b11001 X
1#
#2250
0#
#2255
b11010 X
1#
#2260
0#
#2265
b11011 X
1#
#2270
0#
#2275
b11100 X
1#
#2280
0#
#2285
b11101 X
1#
#2290
0#
#2295
b11110 X
1#
#2300
0#
#2305
b11111 X
1#
#2310
0#
#2315
b100000 X
1#
#2320
0#
#2325
b100001 X
1#
#2330
0#
#2335
b100010 X
1#
#2340
0#
#2345
b100011 X
1#
#2350
0#
#2355
b100100 X
1#
#2360
0#
#2365
b100101 X
1#
#2370
0#
#2375
b100110 X
1#
#2380
0#
#2385
b100111 X
1#
#2390
0#
#2395
b101000 X
1#
#2400
0#
#2405
b101001 X
1#
#2410
0#
#2415
b101010 X
1#
#2420
0#
#2425
b101011 X
1#
#2430
0#
#2435
b101100 X
1#
#2440
0#
#2445
b101101 X
1#
#2450
0#
#2455
b101110 X
1#
#2460
0#
#2465
b101111 X
1#
#2470
0#
#2475
b110000 X
1#
#2480
0#
#2485
b110001 X
1#
#2490
0#
#2495
b110010 X
1#
#2500
0#
#2505
b100100 ,
b100100 6
b100100 ;
b101 -
b101 7
b101 :
b101 D
b101 N
b101 P
b101 R
1.
1U
b110011 X
1#
#2510
0#
#2515
b110100 X
1#
#2520
0#
#2525
b110101 X
1#
#2530
0#
#2535
b110110 X
1#
#2540
0#
#2545
b110111 X
1#
#2550
0#
#2555
b111000 X
1#
#2560
0#
#2565
b111001 X
1#
#2570
0#
#2575
b111010 X
1#
#2580
0#
#2585
b111011 X
1#
#2590
0#
#2595
b111100 X
1#
#2600
0#
#2605
b111101 X
1#
#2610
0#
#2615
b111110 X
1#
#2620
0#
#2625
b111111 X
1#
#2630
0#
#2635
b1000000 X
1#
#2640
0#
#2645
b1000001 X
1#
#2650
0#
#2655
b1000010 X
1#
#2660
0#
#2665
b1000011 X
1#
#2670
0#
#2675
b1000100 X
1#
#2680
0#
#2685
b1000101 X
1#
#2690
0#
#2695
b1000110 X
1#
#2700
0#
#2705
b1000111 X
1#
#2710
0#
#2715
b1001000 X
1#
#2720
0#
#2725
b1001001 X
1#
#2730
0#
#2735
b1001010 X
1#
#2740
0#
#2745
b1001011 X
1#
#2750
0#
#2755
b1001100 X
1#
#2760
0#
#2765
b1001101 X
1#
#2770
0#
#2775
b1001110 X
1#
#2780
0#
#2785
b1001111 X
1#
#2790
0#
#2795
b1010000 X
1#
#2800
0#
#2805
b1010001 X
1#
#2810
0#
#2815
b1010010 X
1#
#2820
0#
#2825
b1010011 X
1#
#2830
0#
#2835
b1010100 X
1#
#2840
0#
#2845
b1010101 X
1#
#2850
0#
#2855
b1010110 X
1#
#2860
0#
#2865
b1010111 X
1#
#2870
0#
#2875
b1011000 X
1#
#2880
0#
#2885
b1011001 X
1#
#2890
0#
#2895
b1011010 X
1#
#2900
0#
#2905
b1011011 X
1#
#2910
0#
#2915
b1011100 X
1#
#2920
0#
#2925
b1011101 X
1#
#2930
0#
#2935
b1011110 X
1#
#2940
0#
#2945
b1011111 X
1#
#2950
0#
#2955
b1100000 X
1#
#2960
0#
#2965
b1100001 X
1#
#2970
0#
#2975
b1100010 X
1#
#2980
0#
#2985
b1100011 X
1#
#2990
0#
#2995
b0 X
1#
#3000
0#
#3005
0.
0U
b1 X
1#
#3010
0#
#3015
b10 X
1#
#3020
0#
#3025
b11 X
1#
#3030
0#
#3035
b100 X
1#
#3040
0#
#3045
b101 X
1#
#3050
0#
#3055
b110 X
1#
#3060
0#
#3065
b111 X
1#
#3070
0#
#3075
b1000 X
1#
#3080
0#
#3085
b1001 X
1#
#3090
0#
#3095
b1010 X
1#
#3100
0#
#3105
b1011 X
1#
#3110
0#
#3115
b1100 X
1#
#3120
0#
#3125
b1101 X
1#
#3130
0#
#3135
b1110 X
1#
#3140
0#
#3145
b1111 X
1#
#3150
0#
#3155
b10000 X
1#
#3160
0#
#3165
b10001 X
1#
#3170
0#
#3175
b10010 X
1#
#3180
0#
#3185
b10011 X
1#
#3190
0#
#3195
b10100 X
1#
#3200
0#
#3205
b10101 X
1#
#3210
0#
#3215
b10110 X
1#
#3220
0#
#3225
b10111 X
1#
#3230
0#
#3235
b11000 X
1#
#3240
0#
#3245
b11001 X
1#
#3250
0#
#3255
b11010 X
1#
#3260
0#
#3265
b11011 X
1#
#3270
0#
#3275
b11100 X
1#
#3280
0#
#3285
b11101 X
1#
#3290
0#
#3295
b11110 X
1#
#3300
0#
#3305
b11111 X
1#
#3310
0#
#3315
b100000 X
1#
#3320
0#
#3325
b100001 X
1#
#3330
0#
#3335
b100010 X
1#
#3340
0#
#3345
b100011 X
1#
#3350
0#
#3355
b100100 X
1#
#3360
0#
#3365
b100101 X
1#
#3370
0#
#3375
b100110 X
1#
#3380
0#
#3385
b100111 X
1#
#3390
0#
#3395
b101000 X
1#
#3400
0#
#3405
b101001 X
1#
#3410
0#
#3415
b101010 X
1#
#3420
0#
#3425
b101011 X
1#
#3430
0#
#3435
b101100 X
1#
#3440
0#
#3445
b101101 X
1#
#3450
0#
#3455
b101110 X
1#
#3460
0#
#3465
b101111 X
1#
#3470
0#
#3475
b110000 X
1#
#3480
0#
#3485
b110001 X
1#
#3490
0#
#3495
b110010 X
1#
#3500
0#
#3505
b1001100 ,
b1001100 6
b1001100 ;
b100 -
b100 7
b100 :
b100 D
b100 N
b100 P
b100 R
1.
1U
b110011 X
1#
#3510
0#
#3515
b110100 X
1#
#3520
0#
#3525
b110101 X
1#
#3530
0#
#3535
b110110 X
1#
#3540
0#
#3545
b110111 X
1#
#3550
0#
#3555
b111000 X
1#
#3560
0#
#3565
b111001 X
1#
#3570
0#
#3575
b111010 X
1#
#3580
0#
#3585
b111011 X
1#
#3590
0#
#3595
b111100 X
1#
#3600
0#
#3605
b111101 X
1#
#3610
0#
#3615
b111110 X
1#
#3620
0#
#3625
b111111 X
1#
#3630
0#
#3635
b1000000 X
1#
#3640
0#
#3645
b1000001 X
1#
#3650
0#
#3655
b1000010 X
1#
#3660
0#
#3665
b1000011 X
1#
#3670
0#
#3675
b1000100 X
1#
#3680
0#
#3685
b1000101 X
1#
#3690
0#
#3695
b1000110 X
1#
#3700
0#
#3705
b1000111 X
1#
#3710
0#
#3715
b1001000 X
1#
#3720
0#
#3725
b1001001 X
1#
#3730
0#
#3735
b1001010 X
1#
#3740
0#
#3745
b1001011 X
1#
#3750
0#
#3755
b1001100 X
1#
#3760
0#
#3765
b1001101 X
1#
#3770
0#
#3775
b1001110 X
1#
#3780
0#
#3785
b1001111 X
1#
#3790
0#
#3795
b1010000 X
1#
#3800
0#
#3805
b1010001 X
1#
#3810
0#
#3815
b1010010 X
1#
#3820
0#
#3825
b1010011 X
1#
#3830
0#
#3835
b1010100 X
1#
#3840
0#
#3845
b1010101 X
1#
#3850
0#
#3855
b1010110 X
1#
#3860
0#
#3865
b1010111 X
1#
#3870
0#
#3875
b1011000 X
1#
#3880
0#
#3885
b1011001 X
1#
#3890
0#
#3895
b1011010 X
1#
#3900
0#
#3905
b1011011 X
1#
#3910
0#
#3915
b1011100 X
1#
#3920
0#
#3925
b1011101 X
1#
#3930
0#
#3935
b1011110 X
1#
#3940
0#
#3945
b1011111 X
1#
#3950
0#
#3955
b1100000 X
1#
#3960
0#
#3965
b1100001 X
1#
#3970
0#
#3975
b1100010 X
1#
#3980
0#
#3985
b1100011 X
1#
#3990
0#
#3995
b0 X
1#
#4000
0#
#4005
0.
0U
b1 X
1#
#4010
0#
#4015
b10 X
1#
#4020
0#
#4025
b11 X
1#
#4030
0#
#4035
b100 X
1#
#4040
0#
#4045
b101 X
1#
#4050
0#
#4055
b110 X
1#
#4060
0#
#4065
b111 X
1#
#4070
0#
#4075
b1000 X
1#
#4080
0#
#4085
b1001 X
1#
#4090
0#
#4095
b1010 X
1#
#4100
0#
#4105
b1011 X
1#
#4110
0#
#4115
b1100 X
1#
#4120
0#
#4125
b1101 X
1#
#4130
0#
#4135
b1110 X
1#
#4140
0#
#4145
b1111 X
1#
#4150
0#
#4155
b10000 X
1#
#4160
0#
#4165
b10001 X
1#
#4170
0#
#4175
b10010 X
1#
#4180
0#
#4185
b10011 X
1#
#4190
0#
#4195
b10100 X
1#
#4200
0#
#4205
b10101 X
1#
#4210
0#
#4215
b10110 X
1#
#4220
0#
#4225
b10111 X
1#
#4230
0#
#4235
b11000 X
1#
#4240
0#
#4245
b11001 X
1#
#4250
0#
#4255
b11010 X
1#
#4260
0#
#4265
b11011 X
1#
#4270
0#
#4275
b11100 X
1#
#4280
0#
#4285
b11101 X
1#
#4290
0#
#4295
b11110 X
1#
#4300
0#
#4305
b11111 X
1#
#4310
0#
#4315
b100000 X
1#
#4320
0#
#4325
b100001 X
1#
#4330
0#
#4335
b100010 X
1#
#4340
0#
#4345
b100011 X
1#
#4350
0#
#4355
b100100 X
1#
#4360
0#
#4365
b100101 X
1#
#4370
0#
#4375
b100110 X
1#
#4380
0#
#4385
b100111 X
1#
#4390
0#
#4395
b101000 X
1#
#4400
0#
#4405
b101001 X
1#
#4410
0#
#4415
b101010 X
1#
#4420
0#
#4425
b101011 X
1#
#4430
0#
#4435
b101100 X
1#
#4440
0#
#4445
b101101 X
1#
#4450
0#
#4455
b101110 X
1#
#4460
0#
#4465
b101111 X
1#
#4470
0#
#4475
b110000 X
1#
#4480
0#
#4485
b110001 X
1#
#4490
0#
#4495
b110010 X
1#
#4500
0#
#4505
b110 ,
b110 6
b110 ;
b11 -
b11 7
b11 :
b11 D
b11 N
b11 P
b11 R
1.
1U
b110011 X
1#
#4510
0#
#4515
b110100 X
1#
#4520
0#
#4525
b110101 X
1#
#4530
0#
#4535
b110110 X
1#
#4540
0#
#4545
b110111 X
1#
#4550
0#
#4555
b111000 X
1#
#4560
0#
#4565
b111001 X
1#
#4570
0#
#4575
b111010 X
1#
#4580
0#
#4585
b111011 X
1#
#4590
0#
#4595
b111100 X
1#
#4600
0#
#4605
b111101 X
1#
#4610
0#
#4615
b111110 X
1#
#4620
0#
#4625
b111111 X
1#
#4630
0#
#4635
b1000000 X
1#
#4640
0#
#4645
b1000001 X
1#
#4650
0#
#4655
b1000010 X
1#
#4660
0#
#4665
b1000011 X
1#
#4670
0#
#4675
b1000100 X
1#
#4680
0#
#4685
b1000101 X
1#
#4690
0#
#4695
b1000110 X
1#
#4700
0#
#4705
b1000111 X
1#
#4710
0#
#4715
b1001000 X
1#
#4720
0#
#4725
b1001001 X
1#
#4730
0#
#4735
b1001010 X
1#
#4740
0#
#4745
b1001011 X
1#
#4750
0#
#4755
b1001100 X
1#
#4760
0#
#4765
b1001101 X
1#
#4770
0#
#4775
b1001110 X
1#
#4780
0#
#4785
b1001111 X
1#
#4790
0#
#4795
b1010000 X
1#
#4800
0#
#4805
b1010001 X
1#
#4810
0#
#4815
b1010010 X
1#
#4820
0#
#4825
b1010011 X
1#
#4830
0#
#4835
b1010100 X
1#
#4840
0#
#4845
b1010101 X
1#
#4850
0#
#4855
b1010110 X
1#
#4860
0#
#4865
b1010111 X
1#
#4870
0#
#4875
b1011000 X
1#
#4880
0#
#4885
b1011001 X
1#
#4890
0#
#4895
b1011010 X
1#
#4900
0#
#4905
b1011011 X
1#
#4910
0#
#4915
b1011100 X
1#
#4920
0#
#4925
b1011101 X
1#
#4930
0#
#4935
b1011110 X
1#
#4940
0#
#4945
b1011111 X
1#
#4950
0#
#4955
b1100000 X
1#
#4960
0#
#4965
b1100001 X
1#
#4970
0#
#4975
b1100010 X
1#
#4980
0#
#4985
b1100011 X
1#
#4990
0#
#4995
b0 X
1#
#5000
0#
#5005
0.
0U
b1 X
1#
#5010
0#
#5015
b10 X
1#
#5020
0#
#5025
b11 X
1#
#5030
0#
#5035
b100 X
1#
#5040
0#
#5045
b101 X
1#
#5050
0#
#5055
b110 X
1#
#5060
0#
#5065
b111 X
1#
#5070
0#
#5075
b1000 X
1#
#5080
0#
#5085
b1001 X
1#
#5090
0#
#5095
b1010 X
1#
#5100
0#
#5105
b1011 X
1#
#5110
0#
#5115
b1100 X
1#
#5120
0#
#5125
b1101 X
1#
#5130
0#
#5135
b1110 X
1#
#5140
0#
#5145
b1111 X
1#
#5150
0#
#5155
b10000 X
1#
#5160
0#
#5165
b10001 X
1#
#5170
0#
#5175
b10010 X
1#
#5180
0#
#5185
b10011 X
1#
#5190
0#
#5195
b10100 X
1#
#5200
0#
#5205
b10101 X
1#
#5210
0#
#5215
b10110 X
1#
#5220
0#
#5225
b10111 X
1#
#5230
0#
#5235
b11000 X
1#
#5240
0#
#5245
b11001 X
1#
#5250
0#
#5255
b11010 X
1#
#5260
0#
#5265
b11011 X
1#
#5270
0#
#5275
b11100 X
1#
#5280
0#
#5285
b11101 X
1#
#5290
0#
#5295
b11110 X
1#
#5300
0#
#5305
b11111 X
1#
#5310
0#
#5315
b100000 X
1#
#5320
0#
#5325
b100001 X
1#
#5330
0#
#5335
b100010 X
1#
#5340
0#
#5345
b100011 X
1#
#5350
0#
#5355
b100100 X
1#
#5360
0#
#5365
b100101 X
1#
#5370
0#
#5375
b100110 X
1#
#5380
0#
#5385
b100111 X
1#
#5390
0#
#5395
b101000 X
1#
#5400
0#
#5405
b101001 X
1#
#5410
0#
#5415
b101010 X
1#
#5420
0#
#5425
b101011 X
1#
#5430
0#
#5435
b101100 X
1#
#5440
0#
#5445
b101101 X
1#
#5450
0#
#5455
b101110 X
1#
#5460
0#
#5465
b101111 X
1#
#5470
0#
#5475
b110000 X
1#
#5480
0#
#5485
b110001 X
1#
#5490
0#
#5495
b110010 X
1#
#5500
0#
#5505
b10010 ,
b10010 6
b10010 ;
b10 -
b10 7
b10 :
b10 D
b10 N
b10 P
b10 R
1.
1U
b110011 X
1#
#5510
0#
#5515
b110100 X
1#
#5520
0#
#5525
b110101 X
1#
#5530
0#
#5535
b110110 X
1#
#5540
0#
#5545
b110111 X
1#
#5550
0#
#5555
b111000 X
1#
#5560
0#
#5565
b111001 X
1#
#5570
0#
#5575
b111010 X
1#
#5580
0#
#5585
b111011 X
1#
#5590
0#
#5595
b111100 X
1#
#5600
0#
#5605
b111101 X
1#
#5610
0#
#5615
b111110 X
1#
#5620
0#
#5625
b111111 X
1#
#5630
0#
#5635
b1000000 X
1#
#5640
0#
#5645
b1000001 X
1#
#5650
0#
#5655
b1000010 X
1#
